{
  "name": "BetterBowl",
  "author": "TeigRolle and traxam",
  "description": "Gives you an empty bowl when you ate soup.",
  "version": "1.0.2",
  "license": "GNU AGPLv3",
  "icon": "icon.png",
  "banner": "banner.png",
  "gameVersion": "Update 11 (4677160)",
  "updateUrl": "https://www.raftmodding.com/api/v1/mods/betterbowl/version.txt",
  "isModPermanent": false,
  "excludedFiles": []
}